STAT 440 Statistical Data Management - Fall 2021
…
Approach 2 - Fixing rounding errors and inconsistent units of measurement

Numeric inconsistencies can plague data analysis. Fixing them can be as simple as converting the existing variable to another more accessible unit of measure (e.g.centimeters instead of inches). Re-formatting the variable may solve other numeric errors, especially when the numeric value we want is initially treated as a character string. Rounding errors may be fixed quickly by employing a function in the programming language such as ceiling, flooring, and rounding.

We could round the latitude and longitude values of rentals data to the hundredths place via rounding.

rentals2 %>%
  mutate(Latitude=round(Latitude,2), Longitude=round(Longitude,2))

## # A tibble: 1,730 x 10
##    `Property Addre `Parcel Number` `Inspection Dat Grade `License Status`
##    <chr>                      <dbl> <date>           <chr> <chr>           
##  1 607 1/2 Glover     922116177018 2015-07-24       Clas Expired         
##  2 1302 1/2 Hill S    912107406011 2011-08-17       Clas Issued          
##  3 212 1/2 Central    912108383001 2010-04-26       Clas Issued          
##  4 801 1/2 East Ha    932121153003 2013-06-12       Clas Issued          
##  5 1003 1/2 East H    932121153010 2013-07-08       Clas Issued          
##  6 1204 1/2 North     912107276001 2011-10-20       Clas Issued          
##  7 910 1/2 North B    912108153017 2010-12-17       Clas Issued          
##  8 1109 1/2 East M    922116126007 2015-06-05       Clas Issued          
##  9 1306 1/2 East M    932121327003 2013-07-08       Clas Issued          
## 10 807 1/2 West Ma    912108354004 2011-05-18       Clas Issued          
## #  with 1,720 more rows, and 5 more variables: `Expiration Date` <date>,
## #   Latitude <dbl>, Longitude <dbl>, City <chr>, State <chr>

Approach 3 - Removing or replacing missing values

A missing value may actually be informative for a particular data analysis. Thus, be cautious when removing missing values from a dataset. Consider why or how the missing values came to be and what information you may be discarding by removing missing values. If a value is missing completely at random, then removal is usually safe.

The dplyr package has the drop_na() function which quickly removes NAs from a dataset.

We could apply the drop_na() function on the entire rentals2 data. Again, this is not something that is necessary for this particular dataset.

rentals2 %>%
  drop_na()

## # A tibble: 1,456 x 10
##    `Property Addre `Parcel Number` `Inspection Dat Grade `License Status`
##    <chr>                      <dbl> <date>           <chr> <chr>           
##  1 607 1/2 Glover     922116177018 2015-07-24       Clas Expired         
##  2 1302 1/2 Hill S    912107406011 2011-08-17       Clas Issued          
##  3 801 1/2 East Ha    932121153003 2013-06-12       Clas Issued          
##  4 1003 1/2 East H    932121153010 2013-07-08       Clas Issued          
##  5 1204 1/2 North     912107276001 2011-10-20       Clas Issued          
##  6 910 1/2 North B    912108153017 2010-12-17       Clas Issued          
##  7 1109 1/2 East M    922116126007 2015-06-05       Clas Issued          
##  8 1306 1/2 East M    932121327003 2013-07-08       Clas Issued          
##  9 807 1/2 West Ma    912108354004 2011-05-18       Clas Issued          
## 10 709 1/2 South V    922117264013 2009-12-07       Clas Issued          
## #  with 1,446 more rows, and 5 more variables: `Expiration Date` <date>,
## #   Latitude <dbl>, Longitude <dbl>, City <chr>, State <chr>

Approach 4 - Limiting a distribution to its realistic set of observations

This essentially means subsetting with conditions on numeric variables. Again, filtering works here.

For example, if we were to remove incorrect coordinate values. This is not something we should do for this particular dataset.

rentals %>%
  filter(between(Coordinates01,30,50), between(Coordinates02,-90,-70))

## # A tibble: 521 x 9
##    `Property Addre `Parcel Number` `Inspection Dat Grade `License Status`
##    <chr>                      <dbl> <date>           <chr> <chr>           
##  1 607 1/2 Glover     922116177018 2015-07-24       Clas Expired         
##  2 1302 1/2 Hill S    912107406011 2011-08-17       Clas Issued          
##  3 801 1/2 East Ha    932121153003 2013-06-12       Clas Issued          
##  4 1003 1/2 East H    932121153010 2013-07-08       Clas Issued          
##  5 1204 1/2 North     912107276001 2011-10-20       Clas Issued          
##  6 910 1/2 North B    912108153017 2010-12-17       Clas Issued          
##  7 1109 1/2 East M    922116126007 2015-06-05       Clas Issued          
##  8 1306 1/2 East M    932121327003 2013-07-08       Clas Issued          
##  9 807 1/2 West Ma    912108354004 2011-05-18       Clas Issued          
## 10 709 1/2 South V    922117264013 2009-12-07       Clas Issued          
## #  with 511 more rows, and 4 more variables: `Expiration Date` <date>,
## #   `Mappable Address` <chr>, Coordinates01 <dbl>, Coordinates02 <dbl>

Approach 5 - Correcting and subsetting with dates

This might also be considered subsetting and applying functions and operators for dates and times.

rentals2 %>%
  filter(`Inspection Date` < "2021-01-01", `Inspection Date`>"2019-12-31")

## # A tibble: 42 x 10
##    `Property Addre `Parcel Number` `Inspection Dat Grade `License Status`
##    <chr>                      <dbl> <date>           <chr> <chr>           
##  1 308 East Iowa S    932117426024 2020-01-17       Clas Issued          
##  2 308 East Oregon    922117280010 2020-03-04       Clas Issued          
##  3 605 West Iowa S    932117306016 2020-02-24       Clas Issued          
##  4 505 South Maple    922117277009 2020-01-07       Clas Issued          
##  5 205 West Pennsy    932117381007 2020-02-25       Clas Issued          
##  6 712 South Maple    922117286009 2020-02-12       Clas Issued          
##  7 1506 South Vine    932117478009 2020-03-03       Clas Issued          
##  8 710 South Maple    922117286008 2020-01-14       Clas Issued          
##  9 206 West Florid    932117383017 2020-02-27       Clas Issued          
## 10 800 South Vine     922117284041 2020-01-29       Clas Issued          
## #  with 32 more rows, and 5 more variables: `Expiration Date` <date>,
## #   Latitude <dbl>, Longitude <dbl>, City <chr>, State <chr>

Approach 6 - Correcting misspelled words, abbreviations, or text cases

With unstructured text data, correcting spellings comes up often. When it is important that words should be spelled correctly, a data engineer can spend time addressing it. However, it may be untenable to attempt to correctly spell each word in a text dataset. (Also, the text sources intent should be considered, such as African American Vernacular English, and other vernaculars that appear in writing). Another aspect of text data cleaning is deciding what to do with the case of the words in the text. Processing text might go smoother if we lower (or upper) the case on all text. For specific variables in a structured dataset, changing the case to a proper case might be beneficial (e.g.peoples name, business name).

We can place all property addresses, grade, and cities in all caps.

rentals2 %>%
  mutate(`Property Address`=toupper(`Property Address`), Grade=toupper(Grade), City=toupper(City))

## # A tibble: 1,730 x 10
##    `Property Addre `Parcel Number` `Inspection Dat Grade `License Status`
##    <chr>                      <dbl> <date>           <chr> <chr>           
##  1 607 1/2 GLOVER     922116177018 2015-07-24       CLAS Expired         
##  2 1302 1/2 HILL S    912107406011 2011-08-17       CLAS Issued          
##  3 212 1/2 CENTRAL    912108383001 2010-04-26       CLAS Issued          
##  4 801 1/2 EAST HA    932121153003 2013-06-12       CLAS Issued          
##  5 1003 1/2 EAST H    932121153010 2013-07-08       CLAS Issued          
##  6 1204 1/2 NORTH     912107276001 2011-10-20       CLAS Issued          
##  7 910 1/2 NORTH B    912108153017 2010-12-17       CLAS Issued          
##  8 1109 1/2 EAST M    922116126007 2015-06-05       CLAS Issued          
##  9 1306 1/2 EAST M    932121327003 2013-07-08       CLAS Issued          
## 10 807 1/2 WEST MA    912108354004 2011-05-18       CLAS Issued          
## #  with 1,720 more rows, and 5 more variables: `Expiration Date` <date>,
## #   Latitude <dbl>, Longitude <dbl>, City <chr>, State <chr>
…
